[
  { "id":1,
    "name":"Intercontinental Marine Drive",
    "image":"1",
    "deal":"15% off on Axis Bank Creadit card and Debit Card ",
    "address":"135 Marine Drive, Marine Drive, Mumbai"
  },
  { "id":2,
    "name":"Trident Nariman Point",
    "image":"hotel-1",
    "deal":"Christmas Offers",
    "address":"Netaji Subhash Chandra Bose Road, Nariman Point, Barrister Rajni Patel Marg, Mumbai"
  },
  { "id":3,
    "name":"The St. Regis Mumbai",
    "image":"2",
    "deal":"",
    "address":"462 Senapati Bapat Marg, Lower Parel , Mumbai, Maharashtra 400013 India, Lower Parel, Mumbai"
  },
  { "id":4,
    "name":"Trident Bandra Kurla",
    "image":"3",
    "deal":"",
    "address":"C 56, G Block, Trident Road, Bandra Kurla Complex"
  },
  { "id":5,
    "name":"Grand Hyatt Mumbai ",
    "image":"4",
    "deal":"",
  "address":"Bandra Kurla Complex vicinity, Off Western Express highway, Santacruz East"
  }
  
  
]